…
    ## Rows: 32
    ## Columns: 5
    ## $ Class    <chr> "1st", "2nd", "3rd", "Crew", "1st", "2nd", "3rd", "Crew", "1s…
    ## $ Sex      <chr> "Male", "Male", "Male", "Male", "Female", "Female", "Female",…
    ## $ Age      <chr> "Child", "Child", "Child", "Child", "Child", "Child", "Child"…
    ## $ Survived <chr> "No", "No", "No", "No", "No", "No", "No", "No", "No", "No", "…
    ## $ n        <dbl> 0, 0, 35, 0, 0, 0, 17, 0, 118, 154, 387, 670, 4, 13, 89, 3, 5…

``` r
## TASK: Perform a `glimpse` of df_titanic
df_titanic
```

    ## # A tibble: 32 × 5
    ##    Class Sex    Age   Survived     n
    ##    <chr> <chr>  <chr> <chr>    <dbl>
    ##  1 1st   Male   Child No           0
    ##  2 2nd   Male   Child No           0
    ##  3 3rd   Male   Child No          35
    ##  4 Crew  Male   Child No           0
    ##  5 1st   Female Child No           0
    ##  6 2nd   Female Child No           0
    ##  7 3rd   Female Child No          17
    ##  8 Crew  Female Child No           0
    ##  9 1st   Male   Adult No         118
    ## 10 2nd   Male   Adult No         154
    ## # ℹ 22 more rows
…
``` r
## NOTE: No need to edit! We'll cover how to
## do this calculation in a later exercise.
df_prop <-
  df_titanic %>%
  group_by(Class, Sex, Age) %>%
  mutate(
    Total = sum(n),
    Prop = n / Total
  ) %>%
  ungroup()
df_prop
```

    ## # A tibble: 32 × 7
    ##    Class Sex    Age   Survived     n Total    Prop
    ##    <chr> <chr>  <chr> <chr>    <dbl> <dbl>   <dbl>
    ##  1 1st   Male   Child No           0     5   0    
    ##  2 2nd   Male   Child No           0    11   0    
    ##  3 3rd   Male   Child No          35    48   0.729
    ##  4 Crew  Male   Child No           0     0 NaN    
    ##  5 1st   Female Child No           0     1   0    
    ##  6 2nd   Female Child No           0    13   0    
    ##  7 3rd   Female Child No          17    31   0.548
    ##  8 Crew  Female Child No           0     0 NaN    
    ##  9 1st   Male   Adult No         118   175   0.674
    ## 10 2nd   Male   Adult No         154   168   0.917
    ## # ℹ 22 more rows
…
